<?xml version="1.0" standalone="no"?>
<!DOCTYPE svg PUBLIC "-//W3C//DTD SVG 1.1//EN" "http://www.w3.org/Graphics/SVG/1.1/DTD/svg11.dtd">
<svg xmlns="http://www.w3.org/2000/svg">
<metadata>Copyright (C) 2015 by original authors @ fontello.com</metadata>
<defs>
<font id="svisitfont" horiz-adv-x="1000" >
<font-face font-family="svisitfont" font-weight="400" font-stretch="normal" units-per-em="1000" ascent="850" descent="-150" />
<missing-glyph horiz-adv-x="1000" />
<glyph glyph-name="angle-down" unicode="&#xe800;" d="m600 439q0-7-6-13l-260-260q-5-5-13-5t-12 5l-260 260q-6 6-6 13t6 13l27 28q6 6 13 6t13-6l219-219 220 219q5 6 13 6t12-6l28-28q6-5 6-13z" horiz-adv-x="642.9" />
<glyph glyph-name="search" unicode="&#xe801;" d="m643 386q0 103-74 176t-176 74-177-74-73-176 73-177 177-73 176 73 74 177z m286-465q0-29-22-50t-50-21q-30 0-50 21l-191 191q-100-69-223-69-80 0-153 31t-125 84-84 125-31 153 31 152 84 126 125 84 153 31 152-31 126-84 84-126 31-152q0-123-69-223l191-191q21-21 21-51z" horiz-adv-x="928.6" />
<glyph glyph-name="scissors" unicode="&#xe802;" d="m873 702q12-15 0-31t-30-9q-47 22-77 5 29-42 29-92 0-69-48-117t-117-48q-61 0-109 41l-33-61q56-64 76-91t65-99l17-28q60-82-41-231l-1-2q-9-12-23-11t-21 13l-162 298-163-298q-7-14-22-14-13 0-22 12-3 5-12 18t-23 42-22 57-5 61 21 58q94 140 158 214l-34 62q-48-41-109-41-69 0-117 48t-48 117 48 117 117 48q41 0 79-20t59-54q20-30 47-86t48-85q20 29 47 85t48 86q51 74 137 74l4 0 10 6q56 35 124 24t105-68z m-709-181q21 0 36 16t15 37-15 36-36 15-37-15-16-36 16-37 37-16z m234-176q11 0 18 7t8 18q0 11-8 19t-18 7-19-7-8-19q0-10 8-18t19-7z m235 176q21 0 36 16t15 37-15 36-36 15-37-15-16-36 16-37 37-16z" horiz-adv-x="879" />
<glyph glyph-name="search-1" unicode="&#xe803;" d="m0-41q0 47 33 80l260 260q-43 82-43 176 0 154 109 265t266 110 266-110 109-266-109-265-266-109q-94 0-176 43l-260-260q-33-33-80-33-45 0-77 32t-32 77z m55 1q0-22 16-39t39-16 40 17l252 252q-45 33-78 78l-252-252q-17-17-17-40z m258 515q0-129 91-221t221-91 221 91 91 221-91 221-221 91-221-91-91-221z m93 0q0 90 65 154t154 65q16 0 16-16t-16-16q-78 0-133-54t-54-133q0-16-16-16t-16 16z" horiz-adv-x="1000" />
<glyph glyph-name="location" unicode="&#xe804;" d="m429 493q0 59-42 101t-101 42-101-42-42-101 42-101 101-42 101 42 42 101z m142 0q0-61-18-100l-203-432q-9-18-27-29t-37-11-38 11-26 29l-204 432q-18 39-18 100 0 118 84 202t202 84 202-84 83-202z" horiz-adv-x="571.4" />
<glyph glyph-name="menu" unicode="&#xe805;" d="m857 100v-71q0-15-10-25t-26-11h-785q-15 0-25 11t-11 25v71q0 15 11 25t25 11h785q15 0 26-11t10-25z m0 286v-72q0-14-10-25t-26-10h-785q-15 0-25 10t-11 25v72q0 14 11 25t25 10h785q15 0 26-10t10-25z m0 285v-71q0-15-10-25t-26-11h-785q-15 0-25 11t-11 25v71q0 15 11 26t25 10h785q15 0 26-10t10-26z" horiz-adv-x="857.1" />
<glyph glyph-name="cancel" unicode="&#xe806;" d="m724 112q0-22-15-38l-76-76q-16-15-38-15t-38 15l-164 165-164-165q-16-15-38-15t-38 15l-76 76q-16 16-16 38t16 38l164 164-164 164q-16 16-16 38t16 38l76 76q16 16 38 16t38-16l164-164 164 164q16 16 38 16t38-16l76-76q15-15 15-38t-15-38l-164-164 164-164q15-15 15-38z" horiz-adv-x="785.7" />
<glyph glyph-name="location-1" unicode="&#xe807;" d="m0 475q0 156 109 266t266 109 266-109 109-266q0-78-28-160t-85-166-101-141-110-133q-20-25-49-25l-4 0q-29 0-49 25-66 77-110 133t-101 141-85 166-28 160z m63 0q0-72 28-150t85-161 95-128 100-120l2 0q2-2 2-4l4 4q62 73 100 120t94 128 86 161 29 150q0 129-92 221t-221 91-221-91-91-221z m125 8q0 78 54 133t133 54 133-54 55-133-55-133-133-55-133 55-54 133z m31 0q0-65 46-111t110-45 110 45 46 111-46 110-110 46-110-46-46-110z" horiz-adv-x="750" />
<glyph glyph-name="search-2" unicode="&#xe808;" d="m746 209l254-255-105-105-254 254q-106-72-232-72-169 0-289 120t-120 289 120 289 289 120 289-120 120-289q0-127-72-231z m-65 231q0 113-79 193t-193 80-193-80-80-193 80-192 193-80 193 80 79 192z" horiz-adv-x="1000" />
<glyph glyph-name="th-large-1" unicode="&#xe809;" d="m1000 850v-440h-440v440h440z m-320-320h200v200h-200v-200z m-240 320v-440h-440v440h440z m-320-320h200v200h-200v-200z m880-240v-440h-440v440h440z m-320-320h200v200h-200v-200z m-240 320v-440h-440v440h440z m-320-320h200v200h-200v-200z" horiz-adv-x="1000" />
<glyph glyph-name="fast-food" unicode="&#xe80a;" d="m350 675c-150 0-300-75-300-200l0-100 850 0 0 100c0 125-150 200-300 200z m25-50c14 0 25-11 25-25 0-14-11-25-25-25-14 0-25 11-25 25 0 14 11 25 25 25z m200 0c14 0 25-11 25-25 0-14-11-25-25-25-14 0-25 11-25 25 0 14 11 25 25 25z m-300-100c14 0 25-11 25-25 0-14-11-25-25-25-14 0-25 11-25 25 0 14 11 25 25 25z m200 0c14 0 25-11 25-25 0-14-11-25-25-25-14 0-25 11-25 25 0 14 11 25 25 25z m200 0c14 0 25-11 25-25 0-14-11-25-25-25-14 0-25 11-25 25 0 14 11 25 25 25z m-625-200c-25 0-50-25-50-50 0-25 25-50 50-50l850 0c25 0 50 25 50 50 0 25-25 50-50 50z m0-150l0-50c0-50 50-100 100-100l650 0c50 0 100 50 100 100l0 50z" horiz-adv-x="950" />
<glyph glyph-name="fire-station" unicode="&#xe80b;" d="m425 775l-175-250-100 150c-33-58-150-200-150-350 0-221 204-400 425-400 221 0 425 179 425 400 0 150-117 292-150 350l-100-150z m0-400s175-134 175-250c0-50-75-100-175-100s-175 50-175 100c0 112 175 250 175 250z" horiz-adv-x="850" />
<glyph glyph-name="heart" unicode="&#xe80c;" d="m1 532q7 111 75 183 94 80 212 70t190-98q38 49 92 79 113 43 217 3t150-140q30-106 10-199t-78-174q-68-94-174-184-53-49-124-103t-93-57q-13 2-28 12t-35 25-24 20q-264 199-348 357-49 96-42 206z" horiz-adv-x="955" />
</font>
</defs>
</svg>